…
``` r
pacman::p_load(tidyverse, parable, janitor, lubridate,
               tsibble, fable, fabletools, feasts, tsibbledata)

aus_ts <- tsibbledata::aus_retail %>%
  rename_all(janitor::make_clean_names) %>%
  update_tsibble(key = series_id, index = month) %>%
  select(-state, -industry) %>%
  filter(year(month) >= 2010) %>%
  group_by_key() %>%
  filter(group_indices() <= 50) %>%
  ungroup()

aus_ts
#> # A tsibble: 5,400 x 3 [1M]
#> # Key:       series_id [50]
#>    series_id    month turnover
#>    <chr>        <mth>    <dbl>
#>  1 A3349335T 2010 Jan    2054.
#>  2 A3349335T 2010 Feb    1817.
#>  3 A3349335T 2010 Mar    2018.
#>  4 A3349335T 2010 Apr    1951.
#>  5 A3349335T 2010 May    1989.
#>  6 A3349335T 2010 Jun    1888.
#>  7 A3349335T 2010 Jul    2036.
#>  8 A3349335T 2010 Aug    2013.
#>  9 A3349335T 2010 Sep    1984.
#> 10 A3349335T 2010 Oct    2076.
#> # … with 5,390 more rows
```
…
